EESchema Schematic File Version 2
LIBS:KOPPLINSSCHEMA-rescue
LIBS:power
LIBS:device
LIBS:transistors
LIBS:conn
LIBS:linear
LIBS:regul
LIBS:74xx
LIBS:cmos4000
LIBS:adc-dac
LIBS:memory
LIBS:xilinx
LIBS:microcontrollers
LIBS:dsp
LIBS:microchip
LIBS:analog_switches
LIBS:motorola
LIBS:texas
LIBS:intel
LIBS:audio
LIBS:interface
LIBS:digital-audio
LIBS:philips
LIBS:display
LIBS:cypress
LIBS:siliconi
LIBS:opto
LIBS:atmel
LIBS:contrib
LIBS:valves
LIBS:74xgxx
LIBS:ac-dc
LIBS:actel
LIBS:allegro
LIBS:Altera
LIBS:analog_devices
LIBS:battery_management
LIBS:bbd
LIBS:brooktre
LIBS:cmos_ieee
LIBS:dc-dc
LIBS:diode
LIBS:elec-unifil
LIBS:ESD_Protection
LIBS:ftdi
LIBS:gennum
LIBS:graphic
LIBS:hc11
LIBS:ir
LIBS:Lattice
LIBS:logo
LIBS:maxim
LIBS:mechanical
LIBS:microchip_dspic33dsc
LIBS:microchip_pic10mcu
LIBS:microchip_pic12mcu
LIBS:microchip_pic16mcu
LIBS:microchip_pic18mcu
LIBS:microchip_pic32mcu
LIBS:motor_drivers
LIBS:motors
LIBS:msp430
LIBS:nordicsemi
LIBS:nxp_armmcu
LIBS:onsemi
LIBS:Oscillators
LIBS:powerint
LIBS:Power_Management
LIBS:pspice
LIBS:references
LIBS:relays
LIBS:rfcom
LIBS:sensors
LIBS:silabs
LIBS:stm8
LIBS:stm32
LIBS:supertex
LIBS:switches
LIBS:transf
LIBS:ttl_ieee
LIBS:video
LIBS:wiznet
LIBS:Worldsemi
LIBS:Xicor
LIBS:zetex
LIBS:Zilog
LIBS:jonatans_lib
LIBS:KOPPLINSSCHEMA-cache
EELAYER 25 0
EELAYER END
$Descr A3 16535 11693
encoding utf-8
Sheet 1 1
Title ""
Date ""
Rev ""
Comp ""
Comment1 ""
Comment2 ""
Comment3 ""
Comment4 ""
$EndDescr
$Comp
L VCC #PWR01
U 1 1 58908DD7
P -5750 -3600
F 0 "#PWR01" H -5750 -3750 50  0001 C CNN
F 1 "VCC" H -5750 -3450 50  0000 C CNN
F 2 "" H -5750 -3600 50  0000 C CNN
F 3 "" H -5750 -3600 50  0000 C CNN
	1    -5750 -3600
	1    0    0    -1  
$EndComp
$Comp
L AVR-JTAG-10 JP_CPU
U 1 1 58909819
P 5350 9300
F 0 "JP_CPU" H 5180 9630 50  0000 C CNN
F 1 "AVR-JTAG" H 5100 8950 50  0000 L BNN
F 2 "AVR-JTAG-10" V 4780 9320 50  0001 C CNN
F 3 "" H 5350 9300 50  0000 C CNN
	1    5350 9300
	1    0    0    -1  
$EndComp
$Comp
L GND #PWR03
U 1 1 589099D6
P 6300 9700
F 0 "#PWR03" H 6300 9450 50  0001 C CNN
F 1 "GND" H 6300 9550 50  0000 C CNN
F 2 "" H 6300 9700 50  0000 C CNN
F 3 "" H 6300 9700 50  0000 C CNN
	1    6300 9700
	1    0    0    -1  
$EndComp
$Comp
L VCC #PWR04
U 1 1 58909A24
P 5900 8750
F 0 "#PWR04" H 5900 8600 50  0001 C CNN
F 1 "VCC" H 5900 8900 50  0000 C CNN
F 2 "" H 5900 8750 50  0000 C CNN
F 3 "" H 5900 8750 50  0000 C CNN
	1    5900 8750
	1    0    0    -1  
$EndComp
$Comp
L R R1
U 1 1 58909F80
P 1900 6100
F 0 "R1" V 1980 6100 50  0000 C CNN
F 1 "11k" V 1900 6100 50  0000 C CNN
F 2 "" V 1830 6100 50  0000 C CNN
F 3 "" H 1900 6100 50  0000 C CNN
	1    1900 6100
	1    0    0    -1  
$EndComp
$Comp
L C C1
U 1 1 5890A0E9
P 1900 6650
F 0 "C1" H 1925 6750 50  0000 L CNN
F 1 "c" H 1925 6550 50  0000 L CNN
F 2 "" H 1938 6500 50  0000 C CNN
F 3 "" H 1900 6650 50  0000 C CNN
	1    1900 6650
	1    0    0    -1  
$EndComp
$Comp
L GND #PWR05
U 1 1 5890A341
P 2400 7500
F 0 "#PWR05" H 2400 7250 50  0001 C CNN
F 1 "GND" H 2400 7350 50  0000 C CNN
F 2 "" H 2400 7500 50  0000 C CNN
F 3 "" H 2400 7500 50  0000 C CNN
	1    2400 7500
	1    0    0    -1  
$EndComp
$Comp
L GND #PWR06
U 1 1 5890A373
P 1900 7000
F 0 "#PWR06" H 1900 6750 50  0001 C CNN
F 1 "GND" H 1900 6850 50  0000 C CNN
F 2 "" H 1900 7000 50  0000 C CNN
F 3 "" H 1900 7000 50  0000 C CNN
	1    1900 7000
	1    0    0    -1  
$EndComp
$Comp
L VCC #PWR07
U 1 1 5890A53E
P 1900 5800
F 0 "#PWR07" H 1900 5650 50  0001 C CNN
F 1 "VCC" H 1900 5950 50  0000 C CNN
F 2 "" H 1900 5800 50  0000 C CNN
F 3 "" H 1900 5800 50  0000 C CNN
	1    1900 5800
	1    0    0    -1  
$EndComp
$Comp
L SW_SPST S1
U 1 1 5891F194
P 2400 7050
F 0 "S1" H 2400 7175 50  0000 C CNN
F 1 "s" H 2400 6950 50  0001 C CNN
F 2 "" H 2400 7050 50  0000 C CNN
F 3 "" H 2400 7050 50  0000 C CNN
	1    2400 7050
	0    1    1    0   
$EndComp
$Comp
L ATMEGA16A-P CPU
U 1 1 5891FD56
P 7650 8600
F 0 "CPU" H 6800 10480 50  0000 L BNN
F 1 "ATMEGA16A-P" H 8100 6650 50  0000 L BNN
F 2 "DIL40" H 7650 8600 50  0000 C CIN
F 3 "" H 7650 8600 50  0000 C CNN
	1    7650 8600
	1    0    0    -1  
$EndComp
$Comp
L ATMEGA16A-P GPU
U 1 1 58920013
P 7850 4100
F 0 "GPU" H 7000 5980 50  0000 L BNN
F 1 "ATMEGA16A-P" H 8300 2150 50  0000 L BNN
F 2 "DIL40" H 7850 4100 50  0000 C CIN
F 3 "" H 7850 4100 50  0000 C CNN
	1    7850 4100
	1    0    0    -1  
$EndComp
Text Label 9450 9200 2    60   ~ 0
JTAG_TDI_CPU
Text Label 4000 9100 0    60   ~ 0
JTAG_TCK_CPU
Text Label 4000 9200 0    60   ~ 0
JTAG_TDO_CPU
Text Label 4000 9300 0    60   ~ 0
JTAG_TMS_CPU
Text Label 4000 9500 0    60   ~ 0
JTAG_TDI_CPU
Text Label 9450 9100 2    60   ~ 0
JTAG_TDO_CPU
Text Label 9450 9000 2    60   ~ 0
JTAG_TMS_CPU
Text Label 9450 8900 2    60   ~ 0
JTAG_TCK_CPU
Text Label 9550 4700 2    60   ~ 0
JTAG_TDI_GPU
Text Label 9550 4600 2    60   ~ 0
JTAG_TDO_GPU
Text Label 9550 4500 2    60   ~ 0
JTAG_TMS_GPU
Text Label 9550 4400 2    60   ~ 0
JTAG_TCK_GPU
$Comp
L AVR-JTAG-10 JP_GPU
U 1 1 58920DB7
P 5500 4800
F 0 "JP_GPU" H 5330 5130 50  0000 C CNN
F 1 "AVR-JTAG" H 5250 4450 50  0000 L BNN
F 2 "AVR-JTAG-10" V 4930 4820 50  0001 C CNN
F 3 "" H 5500 4800 50  0000 C CNN
	1    5500 4800
	1    0    0    -1  
$EndComp
$Comp
L GND #PWR?
U 1 1 58920DBF
P 6450 5200
F 0 "#PWR?" H 6450 4950 50  0001 C CNN
F 1 "GND" H 6450 5050 50  0000 C CNN
F 2 "" H 6450 5200 50  0000 C CNN
F 3 "" H 6450 5200 50  0000 C CNN
	1    6450 5200
	1    0    0    -1  
$EndComp
$Comp
L VCC #PWR?
U 1 1 58920DCA
P 6050 4250
F 0 "#PWR?" H 6050 4100 50  0001 C CNN
F 1 "VCC" H 6050 4400 50  0000 C CNN
F 2 "" H 6050 4250 50  0000 C CNN
F 3 "" H 6050 4250 50  0000 C CNN
	1    6050 4250
	1    0    0    -1  
$EndComp
Text Label 4150 4600 0    60   ~ 0
JTAG_TCK_GPU
Text Label 4150 4700 0    60   ~ 0
JTAG_TDO_GPU
Text Label 4150 4800 0    60   ~ 0
JTAG_TMS_GPU
Text Label 4150 5000 0    60   ~ 0
JTAG_TDI_GPU
Text Label 2950 6400 2    60   ~ 0
RESET_CPU
Text Label 2950 6300 2    60   ~ 0
RESET_GPU
Text Label 6150 6900 0    60   ~ 0
RESET_CPU
Text Label 6300 2400 0    60   ~ 0
RESET_GPU
$Comp
L DB9 JOYSTICK
U 1 1 58924231
P 11000 7400
F 0 "JOYSTICK" H 11000 7950 50  0000 C CNN
F 1 "DB9" H 11000 6850 50  0000 C CNN
F 2 "" H 11000 7400 50  0000 C CNN
F 3 "" H 11000 7400 50  0000 C CNN
	1    11000 7400
	1    0    0    -1  
$EndComp
Text Label 9300 6900 2    60   ~ 0
JOYSTICK_LEFT
Text Label 9300 7000 2    60   ~ 0
JOYSTICK_RIGHT
Text Label 9300 7100 2    60   ~ 0
JOYSTICK_UP
Text Label 9300 7200 2    60   ~ 0
JOYSTICK_DOWN
Text Label 9850 7000 0    60   ~ 0
JOYSTICK_RIGHT
Text Label 9850 7600 0    60   ~ 0
JOYSTICK_LEFT
Text Label 9850 7200 0    60   ~ 0
JOYSTICK_DOWN
Text Label 9850 7400 0    60   ~ 0
JOYSTICK_UP
$Comp
L cyclone_II_vga FPGA
U 1 1 58920F03
P 12550 3800
F 0 "FPGA" H 11100 5550 60  0000 C CNN
F 1 "cyclone_II_vga" H 12500 4350 60  0000 C CNN
F 2 "" H 12550 4350 60  0001 C CNN
F 3 "" H 12550 4350 60  0001 C CNN
	1    12550 3800
	1    0    0    -1  
$EndComp
Text Label 9450 9700 2    60   ~ 0
GPU_RXD
Text Label 9550 5100 2    60   ~ 0
CPU_TXD
NoConn ~ 8850 5200
NoConn ~ 8650 9600
$Comp
L DB15_HighDensity DB15
U 1 1 589252BC
P 14800 7200
F 0 "DB15" H 14800 8050 50  0000 C CNN
F 1 "VGA_OUTPUT" H 14800 7950 50  0000 C CNN
F 2 "" H 13850 7600 50  0000 C CNN
F 3 "" H 13850 7600 50  0000 C CNN
	1    14800 7200
	1    0    0    -1  
$EndComp
$Comp
L VCC #PWR?
U 1 1 5893260E
P 3350 1750
F 0 "#PWR?" H 3350 1600 50  0001 C CNN
F 1 "VCC" H 3350 1900 50  0000 C CNN
F 2 "" H 3350 1750 50  0000 C CNN
F 3 "" H 3350 1750 50  0000 C CNN
	1    3350 1750
	1    0    0    -1  
$EndComp
$Comp
L GND #PWR?
U 1 1 58932D2E
P 4650 2800
F 0 "#PWR?" H 4650 2550 50  0001 C CNN
F 1 "GND" H 4650 2650 50  0000 C CNN
F 2 "" H 4650 2800 50  0000 C CNN
F 3 "" H 4650 2800 50  0000 C CNN
	1    4650 2800
	1    0    0    -1  
$EndComp
Text Label 3800 3400 1    60   ~ 0
XTAL1_CPU
Text Label 4200 3400 1    60   ~ 0
XTAL1_GPU
Text Label 6150 7700 0    60   ~ 0
XTAL1_CPU
Text Label 6300 3200 0    60   ~ 0
XTAL1_GPU
$Comp
L C C2
U 1 1 58933F66
P 3350 2300
F 0 "C2" H 3375 2400 50  0000 L CNN
F 1 "C" H 3375 2200 50  0000 L CNN
F 2 "" H 3388 2150 50  0000 C CNN
F 3 "" H 3350 2300 50  0000 C CNN
	1    3350 2300
	1    0    0    -1  
$EndComp
$Comp
L GND #PWR?
U 1 1 5893412C
P 3350 2700
F 0 "#PWR?" H 3350 2450 50  0001 C CNN
F 1 "GND" H 3350 2550 50  0000 C CNN
F 2 "" H 3350 2700 50  0000 C CNN
F 3 "" H 3350 2700 50  0000 C CNN
	1    3350 2700
	1    0    0    -1  
$EndComp
$Comp
L DIL8 Exo-16Mhz
U 1 1 58934A46
P 4150 2400
F 0 "Exo-16Mhz" H 4150 2650 50  0000 C CNN
F 1 "DIL8" V 4150 2400 50  0000 C CNN
F 2 "" H 4150 2400 50  0000 C CNN
F 3 "" H 4150 2400 50  0000 C CNN
	1    4150 2400
	0    -1   -1   0   
$EndComp
$Comp
L CONN_02X08 R26-41
U 1 1 58944874
P 10100 3550
F 0 "R26-41" H 10100 4000 50  0000 C CNN
F 1 "CONN_02X08" V 10100 3550 50  0000 C CNN
F 2 "" H 10100 2350 50  0000 C CNN
F 3 "" H 10100 2350 50  0000 C CNN
	1    10100 3550
	1    0    0    -1  
$EndComp
$Comp
L CONN_02X08 R10-26
U 1 1 58944A20
P 9600 2750
F 0 "R10-26" H 9600 3200 50  0000 C CNN
F 1 "CONN_02X08" V 9600 2750 50  0000 C CNN
F 2 "" H 9600 1550 50  0000 C CNN
F 3 "" H 9600 1550 50  0000 C CNN
	1    9600 2750
	1    0    0    -1  
$EndComp
Text Label 9850 7100 0    60   ~ 0
JOYSTICK_FIRE
Text Label 9300 7300 2    60   ~ 0
JOYSTICK_FIRE
$Comp
L SW_Push_Open LED_GUL
U 1 1 5895F2D5
P 2700 7050
F 0 "LED_GUL" H 2700 7150 50  0001 C CNN
F 1 "S2" H 2700 6975 50  0000 C CNN
F 2 "" H 2700 7250 50  0000 C CNN
F 3 "" H 2700 7250 50  0000 C CNN
	1    2700 7050
	0    -1   -1   0   
$EndComp
Text Label 3250 6700 2    60   ~ 0
LED_GUL
Wire Wire Line
	5400 9100 6300 9100
Wire Wire Line
	5400 9500 6300 9500
Wire Wire Line
	5900 9200 5400 9200
Wire Wire Line
	5900 8750 5900 9200
Wire Wire Line
	5150 9400 4850 9400
Wire Wire Line
	4850 9400 4850 8850
Wire Wire Line
	4850 8850 5900 8850
Connection ~ 5900 8850
Wire Wire Line
	5150 9100 4000 9100
Wire Wire Line
	5150 9200 4000 9200
Wire Wire Line
	4000 9300 5150 9300
Wire Wire Line
	4000 9500 5150 9500
Wire Wire Line
	5400 9300 6250 9300
Wire Wire Line
	1900 6800 1900 7000
Wire Wire Line
	1900 6250 1900 6500
Wire Wire Line
	1900 5800 1900 5950
Wire Wire Line
	1900 6400 2950 6400
Connection ~ 1900 6400
Connection ~ 2400 6400
Wire Wire Line
	2400 6300 2400 6850
Wire Wire Line
	8650 9200 9450 9200
Wire Wire Line
	8650 9100 9450 9100
Wire Wire Line
	8650 9000 9450 9000
Wire Wire Line
	8650 8900 9450 8900
Wire Wire Line
	8850 4400 9550 4400
Wire Wire Line
	8850 4500 9550 4500
Wire Wire Line
	8850 4600 9550 4600
Wire Wire Line
	8850 4700 9550 4700
Wire Wire Line
	5550 4600 6450 4600
Wire Wire Line
	5550 5000 6450 5000
Wire Wire Line
	6050 4700 5550 4700
Wire Wire Line
	6050 4250 6050 4700
Wire Wire Line
	5300 4900 5000 4900
Wire Wire Line
	5000 4900 5000 4350
Wire Wire Line
	5000 4350 6050 4350
Connection ~ 6050 4350
Wire Wire Line
	5300 4600 4150 4600
Wire Wire Line
	5300 4700 4150 4700
Wire Wire Line
	4150 4800 5300 4800
Wire Wire Line
	4150 5000 5300 5000
Wire Wire Line
	5550 4800 6400 4800
Wire Wire Line
	2400 6300 2950 6300
Wire Wire Line
	6650 6900 6150 6900
Wire Wire Line
	6850 2400 6300 2400
Wire Wire Line
	8650 6900 9300 6900
Wire Wire Line
	8650 7000 9300 7000
Wire Wire Line
	8650 7100 9300 7100
Wire Wire Line
	8650 7200 9300 7200
Wire Wire Line
	8650 7300 9300 7300
Wire Wire Line
	10550 7600 9850 7600
Wire Wire Line
	10550 7000 9850 7000
Wire Wire Line
	10550 7400 9850 7400
Wire Wire Line
	10550 7200 9850 7200
Wire Wire Line
	10550 7500 9700 7500
Wire Wire Line
	9700 7500 9700 8150
Wire Wire Line
	8650 9700 9450 9700
Wire Wire Line
	8850 5100 9550 5100
Wire Wire Line
	8850 2400 10950 2400
Wire Wire Line
	8850 2500 10950 2500
Wire Wire Line
	10950 2600 8850 2600
Wire Wire Line
	8850 2700 10950 2700
Wire Wire Line
	8850 2800 10950 2800
Wire Wire Line
	8850 2900 10950 2900
Wire Wire Line
	10950 3000 8850 3000
Wire Wire Line
	8850 3100 10950 3100
Wire Wire Line
	8850 3300 9100 3300
Wire Wire Line
	9100 3300 9100 3200
Wire Wire Line
	9100 3200 10950 3200
Wire Wire Line
	10950 3300 9200 3300
Wire Wire Line
	9200 3300 9200 3400
Wire Wire Line
	9200 3400 8850 3400
Wire Wire Line
	8850 3500 9300 3500
Wire Wire Line
	9300 3500 9300 3400
Wire Wire Line
	9300 3400 10950 3400
Wire Wire Line
	10950 3500 9400 3500
Wire Wire Line
	9400 3500 9400 3600
Wire Wire Line
	9400 3600 8850 3600
Wire Wire Line
	8850 3700 9500 3700
Wire Wire Line
	9500 3700 9500 3600
Wire Wire Line
	9500 3600 10950 3600
Wire Wire Line
	8850 3800 9600 3800
Wire Wire Line
	9600 3800 9600 3700
Wire Wire Line
	9600 3700 10950 3700
Wire Wire Line
	10950 3800 9700 3800
Wire Wire Line
	9700 3800 9700 3900
Wire Wire Line
	9700 3900 8850 3900
Connection ~ 4000 2400
Wire Wire Line
	4000 2000 4000 2050
Wire Wire Line
	3350 2000 4000 2000
Wire Wire Line
	3800 2000 3800 2800
Wire Wire Line
	4300 2750 4300 2800
Wire Wire Line
	4000 2750 4000 2850
Wire Wire Line
	3800 2850 4200 2850
Wire Wire Line
	3800 2850 3800 3400
Wire Wire Line
	4200 2850 4200 3400
Connection ~ 4000 2850
Wire Wire Line
	4200 2800 4200 2750
Wire Wire Line
	3800 2800 4200 2800
Connection ~ 3800 2000
Wire Wire Line
	4300 2800 4650 2800
Wire Wire Line
	4650 2800 4650 2050
Wire Wire Line
	4650 2050 4100 2050
Wire Wire Line
	4200 2050 4200 2050
Connection ~ 4200 2050
Wire Wire Line
	4300 2050 4300 2050
Connection ~ 4300 2050
Wire Wire Line
	6650 7700 6150 7700
Wire Wire Line
	6850 3200 6300 3200
Wire Wire Line
	3350 1750 3350 2150
Connection ~ 3350 2000
Wire Wire Line
	3350 2450 3350 2700
Wire Wire Line
	10550 7100 9850 7100
Wire Wire Line
	2400 7250 2400 7500
Wire Wire Line
	2700 6700 2700 6850
Wire Wire Line
	2700 6700 3250 6700
Wire Notes Line
	2300 6850 2850 6850
Wire Notes Line
	2850 6850 2850 7200
Wire Notes Line
	2850 7200 2300 7200
Wire Notes Line
	2300 7200 2300 6850
Text Notes 2300 7150 1    60   ~ 0
Button
Wire Wire Line
	2400 7250 2700 7250
Wire Wire Line
	6450 4600 6450 5200
Wire Wire Line
	6300 9100 6300 9700
$Comp
L DIL16 POWER_LED
U 1 1 5896114E
P 1900 2400
F 0 "POWER_LED" H 1900 2850 50  0000 C CNN
F 1 "DIL16" V 1900 2400 50  0000 C CNN
F 2 "" H 1900 2400 50  0000 C CNN
F 3 "" H 1900 2400 50  0000 C CNN
	1    1900 2400
	0    -1   -1   0   
$EndComp
Wire Wire Line
	2150 2750 2150 2850
Wire Wire Line
	2150 2850 2600 2850
Wire Wire Line
	2600 2850 2600 1750
$Comp
L VCC #PWR?
U 1 1 5896165F
P 2600 1750
F 0 "#PWR?" H 2600 1600 50  0001 C CNN
F 1 "VCC" H 2600 1900 50  0000 C CNN
F 2 "" H 2600 1750 50  0000 C CNN
F 3 "" H 2600 1750 50  0000 C CNN
	1    2600 1750
	1    0    0    -1  
$EndComp
Wire Wire Line
	2250 2750 2250 3300
Text Label 2250 3300 1    60   ~ 0
LED_GUL
Wire Wire Line
	7600 10600 7600 10750
Wire Wire Line
	7600 10750 7950 10750
Wire Wire Line
	7950 10750 7950 10900
Wire Wire Line
	7700 10600 7700 10750
Connection ~ 7700 10750
$Comp
L GND #PWR?
U 1 1 58961FE2
P 7950 10900
F 0 "#PWR?" H 7950 10650 50  0001 C CNN
F 1 "GND" H 7950 10750 50  0000 C CNN
F 2 "" H 7950 10900 50  0000 C CNN
F 3 "" H 7950 10900 50  0000 C CNN
	1    7950 10900
	1    0    0    -1  
$EndComp
$Comp
L GND #PWR?
U 1 1 58962122
P 8050 6250
F 0 "#PWR?" H 8050 6000 50  0001 C CNN
F 1 "GND" H 8050 6100 50  0000 C CNN
F 2 "" H 8050 6250 50  0000 C CNN
F 3 "" H 8050 6250 50  0000 C CNN
	1    8050 6250
	1    0    0    -1  
$EndComp
$Comp
L VCC #PWR?
U 1 1 58962172
P 7300 6400
F 0 "#PWR?" H 7300 6250 50  0001 C CNN
F 1 "VCC" H 7300 6550 50  0000 C CNN
F 2 "" H 7300 6400 50  0000 C CNN
F 3 "" H 7300 6400 50  0000 C CNN
	1    7300 6400
	1    0    0    -1  
$EndComp
Wire Wire Line
	7800 6100 7800 6250
Wire Wire Line
	7800 6250 8050 6250
Wire Wire Line
	7900 6100 7900 6250
Connection ~ 7900 6250
Wire Wire Line
	7800 6500 7800 6600
Wire Wire Line
	7300 6500 7800 6500
Wire Wire Line
	7300 6500 7300 6400
Wire Wire Line
	7500 6600 7500 6500
Connection ~ 7500 6500
Wire Wire Line
	8000 1950 8000 2100
Wire Wire Line
	7550 1950 8000 1950
Wire Wire Line
	7550 1950 7550 1850
Wire Wire Line
	7700 2100 7700 1950
Connection ~ 7700 1950
$Comp
L VCC #PWR?
U 1 1 58962841
P 7550 1850
F 0 "#PWR?" H 7550 1700 50  0001 C CNN
F 1 "VCC" H 7550 2000 50  0000 C CNN
F 2 "" H 7550 1850 50  0000 C CNN
F 3 "" H 7550 1850 50  0000 C CNN
	1    7550 1850
	1    0    0    -1  
$EndComp
$Comp
L GND #PWR?
U 1 1 58963CB1
P 9700 8150
F 0 "#PWR?" H 9700 7900 50  0001 C CNN
F 1 "GND" H 9700 8000 50  0000 C CNN
F 2 "" H 9700 8150 50  0000 C CNN
F 3 "" H 9700 8150 50  0000 C CNN
	1    9700 8150
	1    0    0    -1  
$EndComp
Text Label 6400 4800 2    60   ~ 0
RESET_GPU
Text Label 6250 9300 2    60   ~ 0
RESET_CPU
Wire Wire Line
	8850 5200 9550 5200
Text Label 9550 5200 2    60   ~ 0
CPU_RXD
Wire Wire Line
	8650 9600 9450 9600
Text Label 9450 9600 2    60   ~ 0
GPU_TXD
$Comp
L Speaker LS?
U 1 1 58B052D9
P 11000 8850
F 0 "LS?" H 11050 9075 50  0000 R CNN
F 1 "Speaker" H 11050 9000 50  0000 R CNN
F 2 "" H 11000 8650 50  0000 C CNN
F 3 "" H 10990 8800 50  0000 C CNN
	1    11000 8850
	1    0    0    -1  
$EndComp
Wire Wire Line
	8650 7600 9300 7600
Text Label 9300 7600 2    60   ~ 0
SPEAKER
Wire Wire Line
	10850 8850 10250 8850
Wire Wire Line
	10800 8950 10600 8950
Wire Wire Line
	10600 8950 10600 9250
Text Label 10250 8850 0    60   ~ 0
SPEAKER
$Comp
L GND #PWR?
U 1 1 58B05911
P 10600 9250
F 0 "#PWR?" H 10600 9000 50  0001 C CNN
F 1 "GND" H 10600 9100 50  0000 C CNN
F 2 "" H 10600 9250 50  0000 C CNN
F 3 "" H 10600 9250 50  0000 C CNN
	1    10600 9250
	1    0    0    -1  
$EndComp
$EndSCHEMATC
